Tool, CEGAR,Predicate Abstraction ,Symbolic Execution ,Bounded Model Checking ,k-Induction ,Property-Directed Reachability ,Explicit-Value Analysis ,Numeric Interval Analysis ,Shape Analysis,Separation Logic,Bit-Precise Analysis,ARG-Based Analysis ,Lazy Abstraction ,Interpolation ,Automata-Based Analysis ,Concurrency Support ,Ranking Functions ,Evolutionary Algorithms ,Algorithm Selection ,Portfolio 
ls , , , , OK, OK, , , OK, OK, , OK, , , , , , OK, , , 
brick , OK, , OK, OK, , , , OK, , , , , , , , OK, , , , 
bubaak , , , OK, , , , , , , , OK, , , , , OK, OK, , , OK 
cbmc , , , , OK, , , , , , , OK, , , , , OK, , , , 
coastal , , , OK, , , , , , , , , , , , , , , , , 
cpabambnb , OK, OK, , , , , OK, , , , OK, OK, OK, OK, , , , , , 
cpabamsmg , , , , , , , , , , , , , , , , , , , , 
cpachecker , OK, OK, OK, OK, OK, , OK, OK, OK, , OK, OK, OK, OK, , OK, OK, , OK, OK 
cpalockator , OK, OK, , , , , OK, , , , OK, OK, OK, OK, , OK, , , , 
crux , , , OK, , , , , , , , , , , , , , , , , 
cseq , , , , OK, , , , , , , OK, , , , , OK, , , , 
cvtalgosel , OK, OK, OK, OK, OK, , OK, OK, OK, , OK, OK, OK, OK, OK, OK, OK, , OK, OK 
cvtparport , OK, OK, OK, OK, OK, , OK, OK, OK, , OK, OK, OK, OK, , OK, OK, , OK, OK 
dartagnan , , , , OK, , , , , , , OK, , , , , OK, , , , 
deagle , , , , OK, , , , , , , , , , , , OK, , , , 
divine , , , OK, , , , OK, , , , OK, , , , , OK, , , OK, OK 
ebf , , , , OK, , , , , , , , , , , , , , , , 
esbmcincr , , , , OK, OK, , , , , , OK, , , , , OK, , , , 
esbmckind , , , , OK, OK, , , OK, , , OK, , , , , OK, , , , 
framacsv , , , , , , , , OK, , , , , , , , , , , , 
gazertheta , OK, OK, , OK, , , OK, , , , OK, OK, OK, OK, , , , , , OK 
gdart , , , OK, , , , , , , , OK, , , , , , , , , OK 
gdartllvm , , , OK, , , , , , , , OK, , , , , , , , , 
goblint , , , , , , , , OK, , , , , , , , OK, , , OK, 
graves , OK, OK, , OK, OK, , OK, OK, OK, , OK, OK, OK, OK, , OK, OK, , OK, OK 
gravespar , , , , , , , , , , , , , , , , , , , , 
infer , , , , , , , , OK, OK, OK, , , , , , , , , , OK 
javaranger , , , OK, , , , , , , , OK, , , , , , , , , 
jayhorn , OK, OK, , , , OK, , OK, , , , , OK, OK, , , , , , 
jbmc , , , , OK, , , , , , , OK, , , , , OK, , , , 
jdart , , , OK, , , , , , , , OK, , , , , , , , , OK 
korn , , OK, OK, , , , OK, , , , , , , , , , , , , OK 
lazycseq , , , , OK, , , , , , , OK, , , , , OK, , , , 
lfchecker , , , , , , , , , , , , , , , , , , , , 
locksmith , , , , , , , , , , , , , , , , OK, , , , 
mlb , , , , , , , , , , , , , , , , , , , , 
mopsa , , , , , , , , OK, , , , , , , , , , , , 
pesco , OK, OK, , OK, OK, , OK, OK, OK, , OK, OK, OK, OK, , OK, OK, , OK, OK 
pichecker , OK, OK, , , , , , , , , OK, OK, , OK, , OK, , , OK, 
pinaka , , , OK, OK, , , , , , , OK, , , , , , , , , 
predatorhp , , , , , , , , , OK, , , , , , , , , , , 
spf , , , OK, , , , , , OK, , , , , , , OK, , , , 
symbiotic , , , OK, , OK, , , OK, OK, , OK, , , , , OK, , , , OK 
theta , OK, OK, , , , , OK, , , , OK, OK, , OK, , OK, , , OK, OK 
uautomizer , OK, OK, , , , , , , , , OK, , OK, OK, OK, OK, OK, , OK, OK 
ugemcutter , OK, OK, , , , , , , , , OK, , OK, OK, OK, OK, , , OK, OK 
ukojak , OK, OK, , , , , , , , , OK, , OK, OK, , , , , , 
utaipan , OK, OK, , , , , OK, OK, , , OK, , OK, OK, OK, OK, , , OK, OK 
veriabs , OK, , , OK, OK, , OK, OK, , , , , , , , , , OK, OK, OK 
veriabsl , OK, , , OK, OK, , OK, OK, , , , , , , , , , OK, OK, OK 
verifuzz , , , , OK, , , , OK, , , , , , , , , , OK, , 
verioover , , , , , , , , , , , , , , , , , , , , 